{
    "type": "application",
    "source-directories": [
        "src"
    ],
    "elm-version": "0.19.1",
    "dependencies": {
        "direct": {
            "billstclair/elm-sha256": "1.0.9",
            "capitalist/elm-octicons": "2.3.0",
            "elm/browser": "1.0.2",
            "elm/core": "1.0.5",
            "elm/file": "1.0.5",
            "elm/html": "1.0.0",
            "elm/http": "2.0.0",
            "elm/json": "1.1.3",
            "elm/parser": "1.1.0",
            "elm/time": "1.0.0",
            "elm/url": "1.0.0",
            "elm-explorations/markdown": "1.0.0",
            "mdgriffith/elm-ui": "1.1.7"
        },
        "indirect": {
            "elm/bytes": "1.0.8",
            "elm/random": "1.0.0",
            "elm/regex": "1.0.0",
            "elm/svg": "1.0.1",
            "elm/virtual-dom": "1.0.2",
            "elm-community/list-extra": "8.2.4"
        }
    },
    "test-dependencies": {
        "direct": {},
        "indirect": {}
    }
}
